<?xml version="1.0" encoding="UTF-8" standalone="no"?>
<!-- Created with Inkscape (http://www.inkscape.org/) -->

<svg
   xmlns:dc="http://purl.org/dc/elements/1.1/"
   xmlns:cc="http://creativecommons.org/ns#"
   xmlns:rdf="http://www.w3.org/1999/02/22-rdf-syntax-ns#"
   xmlns:svg="http://www.w3.org/2000/svg"
   xmlns="http://www.w3.org/2000/svg"
   xmlns:sodipodi="http://sodipodi.sourceforge.net/DTD/sodipodi-0.dtd"
   xmlns:inkscape="http://www.inkscape.org/namespaces/inkscape"
   width="48"
   height="48"
   viewBox="0 0 12.699999 12.699999"
   version="1.1"
   id="svg8"
   sodipodi:docname="lmenu_play.svg"
   inkscape:version="0.92.3 (2405546, 2018-03-11)">
  <defs
     id="defs2" />
  <sodipodi:namedview
     id="base"
     pagecolor="#ffffff"
     bordercolor="#666666"
     borderopacity="1.0"
     inkscape:pageopacity="0.0"
     inkscape:pageshadow="2"
     inkscape:zoom="7.919596"
     inkscape:cx="-24.767874"
     inkscape:cy="10.664422"
     inkscape:document-units="px"
     inkscape:current-layer="layer1"
     showgrid="false"
     units="px"
     inkscape:window-width="1864"
     inkscape:window-height="1064"
     inkscape:window-x="1976"
     inkscape:window-y="0"
     inkscape:window-maximized="1" />
  <metadata
     id="metadata5">
    <rdf:RDF>
      <cc:Work
         rdf:about="">
        <dc:format>image/svg+xml</dc:format>
        <dc:type
           rdf:resource="http://purl.org/dc/dcmitype/StillImage" />
        <dc:title />
      </cc:Work>
    </rdf:RDF>
  </metadata>
  <g
     inkscape:label="Layer 1"
     inkscape:groupmode="layer"
     id="layer1"
     transform="translate(0,-284.30003)">
    <path
       sodipodi:type="star"
       style="fill:#00c2c8;fill-opacity:1;stroke:#00c2c8;stroke-width:0.5385958;stroke-linecap:square;stroke-linejoin:round;stroke-miterlimit:4;stroke-dasharray:none;stroke-opacity:1;paint-order:normal"
       id="path814-3"
       sodipodi:sides="3"
       sodipodi:cx="2.0702245"
       sodipodi:cy="288.92343"
       sodipodi:r1="2.5759377"
       sodipodi:r2="1.2879689"
       sodipodi:arg1="0.97919662"
       sodipodi:arg2="2.0263942"
       inkscape:flatsided="false"
       inkscape:rounded="0"
       inkscape:randomized="0"
       d="m 3.5067981,291.06159 -2.003279,-0.98156 -2.00327889,-0.98157 1.85169749,-1.24411 1.8516975,-1.24411 0.1515815,2.22568 z"
       inkscape:transform-center-x="-0.059697765"
       inkscape:transform-center-y="-0.14956347"
       transform="matrix(-1.5749057,0.10303075,0.10303075,1.5749057,-20.885309,-164.51906)" />
  </g>
</svg>
